%YAML 1.1
%TAG !u! tag:unity3d.com,2011:
--- !u!21 &2100000
Material:
  serializedVersion: 6
  m_ObjectHideFlags: 0
  m_CorrespondingSourceObject: {fileID: 0}
  m_PrefabInstance: {fileID: 0}
  m_PrefabAsset: {fileID: 0}
  m_Name: BlueSky
  m_Shader: {fileID: 46, guid: 0000000000000000f000000000000000, type: 0}
  m_ShaderKeywords: DR_CEL_EXTRA_ON _ALLOWALPHAOVERFLOW_OFF _CELPRIMARYMODE_SINGLE
    _TEXTUREBLENDINGMODE_MULTIPLY _UNITYSHADOWMODE_MULTIPLY
  m_LightmapFlags: 4
  m_EnableInstancingVariants: 1
  m_DoubleSidedGI: 0
  m_CustomRenderQueue: -1
  stringTagMap: {}
  disabledShaderPasses: []
  m_SavedProperties:
    serializedVersion: 3
    m_TexEnvs:
    - _BaseMap:
        m_Texture: {fileID: 0}
        m_Scale: {x: 1, y: 1}
        m_Offset: {x: 0, y: 0}
    - _BumpMap:
        m_Texture: {fileID: 0}
        m_Scale: {x: 1, y: 1}
        m_Offset: {x: 0, y: 0}
    - _CelCurveTexture:
        m_Texture: {fileID: 0}
        m_Scale: {x: 1, y: 1}
        m_Offset: {x: 0, y: 0}
    - _CelStepTexture:
        m_Texture: {fileID: 0}
        m_Scale: {x: 1, y: 1}
        m_Offset: {x: 0, y: 0}
    - _DetailAlbedoMap:
        m_Texture: {fileID: 0}
        m_Scale: {x: 1, y: 1}
        m_Offset: {x: 0, y: 0}
    - _DetailMask:
        m_Texture: {fileID: 0}
        m_Scale: {x: 1, y: 1}
        m_Offset: {x: 0, y: 0}
    - _DetailNormalMap:
        m_Texture: {fileID: 0}
        m_Scale: {x: 1, y: 1}
        m_Offset: {x: 0, y: 0}
    - _EmissionMap:
        m_Texture: {fileID: 0}
        m_Scale: {x: 1, y: 1}
        m_Offset: {x: 0, y: 0}
    - _MainTex:
        m_Texture: {fileID: 0}
        m_Scale: {x: 1, y: 1}
        m_Offset: {x: 0, y: 0}
    - _MetallicGlossMap:
        m_Texture: {fileID: 0}
        m_Scale: {x: 1, y: 1}
        m_Offset: {x: 0, y: 0}
    - _OcclusionMap:
        m_Texture: {fileID: 0}
        m_Scale: {x: 1, y: 1}
        m_Offset: {x: 0, y: 0}
    - _ParallaxMap:
        m_Texture: {fileID: 0}
        m_Scale: {x: 1, y: 1}
        m_Offset: {x: 0, y: 0}
    m_Floats:
    - _AllowAlphaOverflow: 0
    - _AlphaClip: 0
    - _Blend: 0
    - _BumpScale: 1
    - _CameraDistanceFadeClose: 0
    - _CameraDistanceFadeFar: 10
    - _CameraDistanceImpact: 0
    - _CelExtraEnabled: 1
    - _CelNumSteps: 3
    - _CelPrimaryMode: 1
    - _Cull: 2
    - _Cutoff: 0.5
    - _Depth: 100
    - _DetailNormalMapScale: 1
    - _DstBlend: 0
    - _FlatRimEdgeSmoothness: 0.5
    - _FlatRimLightAlign: 0
    - _FlatRimSize: 0.5
    - _FlatSpecularEdgeSmoothness: 0.5
    - _FlatSpecularSize: 0.16
    - _Flatness: 0.52
    - _FlatnessExtra: 0
    - _GlossMapScale: 1
    - _Glossiness: 0.5
    - _GlossyReflections: 1
    - _GradientAngle: 0
    - _GradientCenterX: 0
    - _GradientCenterY: 0
    - _GradientEnabled: 0
    - _GradientSize: 10
    - _LightContribution: 0.5
    - _LightFalloffSize: 0
    - _LightmapDirectionPitch: 0
    - _LightmapDirectionYaw: 0
    - _Metallic: 0
    - _Mode: 0
    - _OcclusionStrength: 1
    - _OutlineDepthOffset: 0
    - _OutlineEnabled: 0
    - _OutlineScale: 1
    - _OutlineWidth: 1
    - _OverrideLightmapDir: 0
    - _Parallax: 0.02
    - _QueueOffset: 0
    - _RimEnabled: 0
    - _SelfShadingSize: 0.151
    - _SelfShadingSizeExtra: 0.198
    - _ShadowEdgeSize: 0.5
    - _ShadowEdgeSizeExtra: 0.3
    - _SmoothnessTextureChannel: 0
    - _SpecularEnabled: 0
    - _SpecularHighlights: 1
    - _SrcBlend: 1
    - _Surface: 0
    - _TextureBlendingMode: 0
    - _TextureImpact: 1
    - _UVSec: 0
    - _UnityShadowMode: 1
    - _UnityShadowOcclusion: 0
    - _UnityShadowPower: 0.5
    - _UnityShadowSharpness: 1
    - _UvFadeX: 0.1
    - _UvFadeY: 0.1
    - _VertexColorsEnabled: 0
    - _ZWrite: 1
    m_Colors:
    - _BaseColor: {r: 1, g: 1, b: 1, a: 1}
    - _Color: {r: 0.4901961, g: 0.9058824, b: 0.86666673, a: 1}
    - _ColorDim: {r: 0.37407407, g: 0.74074066, b: 0.8, a: 1}
    - _ColorDimCurve: {r: 1, g: 0.53333336, b: 0.38039216, a: 1}
    - _ColorDimExtra: {r: 0.39607847, g: 0.7843138, b: 0.8470589, a: 1}
    - _ColorDimSteps: {r: 1, g: 0.53333336, b: 0.38039216, a: 1}
    - _ColorGradient: {r: 0.85023, g: 0.85034, b: 0.85045, a: 0.85056}
    - _EmissionColor: {r: 0, g: 0, b: 0, a: 1}
    - _FlatRimColor: {r: 0.85023, g: 0.85034, b: 0.85045, a: 0.85056}
    - _FlatSpecularColor: {r: 0.8867924, g: 0.62530303, b: 0.53960484, a: 1}
    - _LightmapDirection: {r: 0, g: 1, b: 0, a: 0}
    - _OutlineColor: {r: 1, g: 1, b: 1, a: 1}
    - _UnityShadowColor: {r: 0.85023, g: 0.85034, b: 0.85045, a: 0.85056}
  m_BuildTextureStacks: []
