%YAML 1.1
%TAG !u! tag:unity3d.com,2011:
--- !u!1001 &1463721752969063558
PrefabInstance:
  m_ObjectHideFlags: 0
  serializedVersion: 2
  m_Modification:
    m_TransformParent: {fileID: 0}
    m_Modifications:
    - target: {fileID: 538490733664925358, guid: c223dd58203f73744b88d4facc5164db, type: 3}
      propertyPath: m_Size.x
      value: 0.93
      objectReference: {fileID: 0}
    - target: {fileID: 538490733664925358, guid: c223dd58203f73744b88d4facc5164db, type: 3}
      propertyPath: m_Size.y
      value: 0.93
      objectReference: {fileID: 0}
    - target: {fileID: 538490733664925358, guid: c223dd58203f73744b88d4facc5164db, type: 3}
      propertyPath: m_Size.z
      value: 2.325
      objectReference: {fileID: 0}
    - target: {fileID: 2100527400489044465, guid: c223dd58203f73744b88d4facc5164db, type: 3}
      propertyPath: m_LocalPosition.x
      value: 0.2325
      objectReference: {fileID: 0}
    - target: {fileID: 2100527400489044465, guid: c223dd58203f73744b88d4facc5164db, type: 3}
      propertyPath: m_LocalPosition.y
      value: 0.465
      objectReference: {fileID: 0}
    - target: {fileID: 2100527400489044465, guid: c223dd58203f73744b88d4facc5164db, type: 3}
      propertyPath: m_LocalPosition.z
      value: 0
      objectReference: {fileID: 0}
    - target: {fileID: 2145732265722672219, guid: c223dd58203f73744b88d4facc5164db, type: 3}
      propertyPath: m_LocalPosition.x
      value: -0.2325
      objectReference: {fileID: 0}
    - target: {fileID: 2145732265722672219, guid: c223dd58203f73744b88d4facc5164db, type: 3}
      propertyPath: m_LocalPosition.z
      value: 0
      objectReference: {fileID: 0}
    - target: {fileID: 2929710680906177256, guid: c223dd58203f73744b88d4facc5164db, type: 3}
      propertyPath: m_Size.x
      value: 0.93
      objectReference: {fileID: 0}
    - target: {fileID: 2929710680906177256, guid: c223dd58203f73744b88d4facc5164db, type: 3}
      propertyPath: m_Size.y
      value: 0
      objectReference: {fileID: 0}
    - target: {fileID: 2929710680906177256, guid: c223dd58203f73744b88d4facc5164db, type: 3}
      propertyPath: m_Size.z
      value: 2.325
      objectReference: {fileID: 0}
    - target: {fileID: 2929710680906177256, guid: c223dd58203f73744b88d4facc5164db, type: 3}
      propertyPath: m_Center.y
      value: 0
      objectReference: {fileID: 0}
    - target: {fileID: 3864316059408695142, guid: c223dd58203f73744b88d4facc5164db, type: 3}
      propertyPath: m_LocalPosition.x
      value: -0.2325
      objectReference: {fileID: 0}
    - target: {fileID: 3864316059408695142, guid: c223dd58203f73744b88d4facc5164db, type: 3}
      propertyPath: m_LocalPosition.z
      value: 0
      objectReference: {fileID: 0}
    - target: {fileID: 5760890606188118590, guid: c223dd58203f73744b88d4facc5164db, type: 3}
      propertyPath: m_Name
      value: Cola_1_Back Variant Variant
      objectReference: {fileID: 0}
    - target: {fileID: 5760890606188118591, guid: c223dd58203f73744b88d4facc5164db, type: 3}
      propertyPath: m_RootOrder
      value: 0
      objectReference: {fileID: 0}
    - target: {fileID: 5760890606188118591, guid: c223dd58203f73744b88d4facc5164db, type: 3}
      propertyPath: m_LocalPosition.x
      value: 6.664587
      objectReference: {fileID: 0}
    - target: {fileID: 5760890606188118591, guid: c223dd58203f73744b88d4facc5164db, type: 3}
      propertyPath: m_LocalPosition.y
      value: -0.059999466
      objectReference: {fileID: 0}
    - target: {fileID: 5760890606188118591, guid: c223dd58203f73744b88d4facc5164db, type: 3}
      propertyPath: m_LocalPosition.z
      value: -4.7409725
      objectReference: {fileID: 0}
    - target: {fileID: 5760890606188118591, guid: c223dd58203f73744b88d4facc5164db, type: 3}
      propertyPath: m_LocalRotation.w
      value: 1
      objectReference: {fileID: 0}
    - target: {fileID: 5760890606188118591, guid: c223dd58203f73744b88d4facc5164db, type: 3}
      propertyPath: m_LocalRotation.x
      value: -0
      objectReference: {fileID: 0}
    - target: {fileID: 5760890606188118591, guid: c223dd58203f73744b88d4facc5164db, type: 3}
      propertyPath: m_LocalRotation.y
      value: -0
      objectReference: {fileID: 0}
    - target: {fileID: 5760890606188118591, guid: c223dd58203f73744b88d4facc5164db, type: 3}
      propertyPath: m_LocalRotation.z
      value: -0
      objectReference: {fileID: 0}
    - target: {fileID: 5760890606188118591, guid: c223dd58203f73744b88d4facc5164db, type: 3}
      propertyPath: m_LocalEulerAnglesHint.x
      value: 0
      objectReference: {fileID: 0}
    - target: {fileID: 5760890606188118591, guid: c223dd58203f73744b88d4facc5164db, type: 3}
      propertyPath: m_LocalEulerAnglesHint.y
      value: 0
      objectReference: {fileID: 0}
    - target: {fileID: 5760890606188118591, guid: c223dd58203f73744b88d4facc5164db, type: 3}
      propertyPath: m_LocalEulerAnglesHint.z
      value: 0
      objectReference: {fileID: 0}
    - target: {fileID: 5760890606260397696, guid: c223dd58203f73744b88d4facc5164db, type: 3}
      propertyPath: m_LocalScale.x
      value: 14.086504
      objectReference: {fileID: 0}
    - target: {fileID: 5760890606260397696, guid: c223dd58203f73744b88d4facc5164db, type: 3}
      propertyPath: m_LocalScale.y
      value: 14.086504
      objectReference: {fileID: 0}
    - target: {fileID: 5760890606260397696, guid: c223dd58203f73744b88d4facc5164db, type: 3}
      propertyPath: m_LocalScale.z
      value: 14.086504
      objectReference: {fileID: 0}
    - target: {fileID: 5760890606260397696, guid: c223dd58203f73744b88d4facc5164db, type: 3}
      propertyPath: m_LocalPosition.x
      value: 0.2325
      objectReference: {fileID: 0}
    - target: {fileID: 5760890606260397696, guid: c223dd58203f73744b88d4facc5164db, type: 3}
      propertyPath: m_LocalPosition.y
      value: 0.465
      objectReference: {fileID: 0}
    - target: {fileID: 5760890606260397696, guid: c223dd58203f73744b88d4facc5164db, type: 3}
      propertyPath: m_LocalPosition.z
      value: -1.1625
      objectReference: {fileID: 0}
    - target: {fileID: 5760890606260397696, guid: c223dd58203f73744b88d4facc5164db, type: 3}
      propertyPath: m_LocalRotation.w
      value: 0.7071068
      objectReference: {fileID: 0}
    - target: {fileID: 5760890606260397696, guid: c223dd58203f73744b88d4facc5164db, type: 3}
      propertyPath: m_LocalRotation.x
      value: 0.7071068
      objectReference: {fileID: 0}
    - target: {fileID: 5760890606260397696, guid: c223dd58203f73744b88d4facc5164db, type: 3}
      propertyPath: m_LocalRotation.y
      value: 0
      objectReference: {fileID: 0}
    - target: {fileID: 5760890606260397696, guid: c223dd58203f73744b88d4facc5164db, type: 3}
      propertyPath: m_LocalRotation.z
      value: 0
      objectReference: {fileID: 0}
    - target: {fileID: 5760890606260397696, guid: c223dd58203f73744b88d4facc5164db, type: 3}
      propertyPath: m_LocalEulerAnglesHint.x
      value: 90
      objectReference: {fileID: 0}
    - target: {fileID: 5760890606260397698, guid: c223dd58203f73744b88d4facc5164db, type: 3}
      propertyPath: m_Materials.Array.data[0]
      value: 
      objectReference: {fileID: 2100000, guid: 03bafced6db2dba4998e87943b0828c9, type: 2}
    - target: {fileID: 5760890606260397699, guid: c223dd58203f73744b88d4facc5164db, type: 3}
      propertyPath: m_Mesh
      value: 
      objectReference: {fileID: 1606996404801566785, guid: d7e1b03df7f568f44855be55b4b8c5be, type: 3}
    - target: {fileID: 8433769957707775209, guid: c223dd58203f73744b88d4facc5164db, type: 3}
      propertyPath: m_LocalPosition.x
      value: 0.2325
      objectReference: {fileID: 0}
    - target: {fileID: 8433769957707775209, guid: c223dd58203f73744b88d4facc5164db, type: 3}
      propertyPath: m_LocalPosition.y
      value: 0.93
      objectReference: {fileID: 0}
    - target: {fileID: 8433769957707775209, guid: c223dd58203f73744b88d4facc5164db, type: 3}
      propertyPath: m_LocalPosition.z
      value: 0
      objectReference: {fileID: 0}
    m_RemovedComponents: []
  m_SourcePrefab: {fileID: 100100000, guid: c223dd58203f73744b88d4facc5164db, type: 3}
