%YAML 1.1
%TAG !u! tag:unity3d.com,2011:
--- !u!1001 &4160788702389047326
PrefabInstance:
  m_ObjectHideFlags: 0
  serializedVersion: 2
  m_Modification:
    m_TransformParent: {fileID: 0}
    m_Modifications:
    - target: {fileID: 538490733664925358, guid: c223dd58203f73744b88d4facc5164db, type: 3}
      propertyPath: m_Size.x
      value: 0.93
      objectReference: {fileID: 0}
    - target: {fileID: 538490733664925358, guid: c223dd58203f73744b88d4facc5164db, type: 3}
      propertyPath: m_Size.y
      value: 1.395
      objectReference: {fileID: 0}
    - target: {fileID: 538490733664925358, guid: c223dd58203f73744b88d4facc5164db, type: 3}
      propertyPath: m_Size.z
      value: 1.395
      objectReference: {fileID: 0}
    - target: {fileID: 2100527400489044465, guid: c223dd58203f73744b88d4facc5164db, type: 3}
      propertyPath: m_LocalPosition.x
      value: 0.2325
      objectReference: {fileID: 0}
    - target: {fileID: 2100527400489044465, guid: c223dd58203f73744b88d4facc5164db, type: 3}
      propertyPath: m_LocalPosition.y
      value: 0.6975
      objectReference: {fileID: 0}
    - target: {fileID: 2100527400489044465, guid: c223dd58203f73744b88d4facc5164db, type: 3}
      propertyPath: m_LocalPosition.z
      value: 0
      objectReference: {fileID: 0}
    - target: {fileID: 2145732265722672219, guid: c223dd58203f73744b88d4facc5164db, type: 3}
      propertyPath: m_LocalPosition.x
      value: -0.2325
      objectReference: {fileID: 0}
    - target: {fileID: 2145732265722672219, guid: c223dd58203f73744b88d4facc5164db, type: 3}
      propertyPath: m_LocalPosition.z
      value: 0
      objectReference: {fileID: 0}
    - target: {fileID: 2929710680906177256, guid: c223dd58203f73744b88d4facc5164db, type: 3}
      propertyPath: m_Size.x
      value: 0.93
      objectReference: {fileID: 0}
    - target: {fileID: 2929710680906177256, guid: c223dd58203f73744b88d4facc5164db, type: 3}
      propertyPath: m_Size.y
      value: 0
      objectReference: {fileID: 0}
    - target: {fileID: 2929710680906177256, guid: c223dd58203f73744b88d4facc5164db, type: 3}
      propertyPath: m_Size.z
      value: 1.395
      objectReference: {fileID: 0}
    - target: {fileID: 2929710680906177256, guid: c223dd58203f73744b88d4facc5164db, type: 3}
      propertyPath: m_Center.y
      value: 0
      objectReference: {fileID: 0}
    - target: {fileID: 3864316059408695142, guid: c223dd58203f73744b88d4facc5164db, type: 3}
      propertyPath: m_LocalPosition.x
      value: -0.2325
      objectReference: {fileID: 0}
    - target: {fileID: 3864316059408695142, guid: c223dd58203f73744b88d4facc5164db, type: 3}
      propertyPath: m_LocalPosition.z
      value: 0
      objectReference: {fileID: 0}
    - target: {fileID: 5760890606188118590, guid: c223dd58203f73744b88d4facc5164db, type: 3}
      propertyPath: m_Name
      value: GlassJar_1_Vert Variant
      objectReference: {fileID: 0}
    - target: {fileID: 5760890606188118591, guid: c223dd58203f73744b88d4facc5164db, type: 3}
      propertyPath: m_RootOrder
      value: 0
      objectReference: {fileID: 0}
    - target: {fileID: 5760890606188118591, guid: c223dd58203f73744b88d4facc5164db, type: 3}
      propertyPath: m_LocalPosition.x
      value: -2.35
      objectReference: {fileID: 0}
    - target: {fileID: 5760890606188118591, guid: c223dd58203f73744b88d4facc5164db, type: 3}
      propertyPath: m_LocalPosition.y
      value: 0
      objectReference: {fileID: 0}
    - target: {fileID: 5760890606188118591, guid: c223dd58203f73744b88d4facc5164db, type: 3}
      propertyPath: m_LocalPosition.z
      value: -3.69
      objectReference: {fileID: 0}
    - target: {fileID: 5760890606188118591, guid: c223dd58203f73744b88d4facc5164db, type: 3}
      propertyPath: m_LocalRotation.w
      value: 1
      objectReference: {fileID: 0}
    - target: {fileID: 5760890606188118591, guid: c223dd58203f73744b88d4facc5164db, type: 3}
      propertyPath: m_LocalRotation.x
      value: -0
      objectReference: {fileID: 0}
    - target: {fileID: 5760890606188118591, guid: c223dd58203f73744b88d4facc5164db, type: 3}
      propertyPath: m_LocalRotation.y
      value: -0
      objectReference: {fileID: 0}
    - target: {fileID: 5760890606188118591, guid: c223dd58203f73744b88d4facc5164db, type: 3}
      propertyPath: m_LocalRotation.z
      value: -0
      objectReference: {fileID: 0}
    - target: {fileID: 5760890606188118591, guid: c223dd58203f73744b88d4facc5164db, type: 3}
      propertyPath: m_LocalEulerAnglesHint.x
      value: 0
      objectReference: {fileID: 0}
    - target: {fileID: 5760890606188118591, guid: c223dd58203f73744b88d4facc5164db, type: 3}
      propertyPath: m_LocalEulerAnglesHint.y
      value: 0
      objectReference: {fileID: 0}
    - target: {fileID: 5760890606188118591, guid: c223dd58203f73744b88d4facc5164db, type: 3}
      propertyPath: m_LocalEulerAnglesHint.z
      value: 0
      objectReference: {fileID: 0}
    - target: {fileID: 5760890606260397696, guid: c223dd58203f73744b88d4facc5164db, type: 3}
      propertyPath: m_LocalScale.x
      value: 11.83278
      objectReference: {fileID: 0}
    - target: {fileID: 5760890606260397696, guid: c223dd58203f73744b88d4facc5164db, type: 3}
      propertyPath: m_LocalScale.y
      value: 9.93139
      objectReference: {fileID: 0}
    - target: {fileID: 5760890606260397696, guid: c223dd58203f73744b88d4facc5164db, type: 3}
      propertyPath: m_LocalScale.z
      value: 11.832778
      objectReference: {fileID: 0}
    - target: {fileID: 5760890606260397696, guid: c223dd58203f73744b88d4facc5164db, type: 3}
      propertyPath: m_LocalPosition.x
      value: 0.2325
      objectReference: {fileID: 0}
    - target: {fileID: 5760890606260397696, guid: c223dd58203f73744b88d4facc5164db, type: 3}
      propertyPath: m_LocalPosition.y
      value: 0
      objectReference: {fileID: 0}
    - target: {fileID: 5760890606260397696, guid: c223dd58203f73744b88d4facc5164db, type: 3}
      propertyPath: m_LocalPosition.z
      value: 0
      objectReference: {fileID: 0}
    - target: {fileID: 5760890606260397696, guid: c223dd58203f73744b88d4facc5164db, type: 3}
      propertyPath: m_LocalRotation.w
      value: 0.7071068
      objectReference: {fileID: 0}
    - target: {fileID: 5760890606260397696, guid: c223dd58203f73744b88d4facc5164db, type: 3}
      propertyPath: m_LocalRotation.x
      value: 0
      objectReference: {fileID: 0}
    - target: {fileID: 5760890606260397696, guid: c223dd58203f73744b88d4facc5164db, type: 3}
      propertyPath: m_LocalRotation.y
      value: 0.7071068
      objectReference: {fileID: 0}
    - target: {fileID: 5760890606260397696, guid: c223dd58203f73744b88d4facc5164db, type: 3}
      propertyPath: m_LocalRotation.z
      value: 0
      objectReference: {fileID: 0}
    - target: {fileID: 5760890606260397696, guid: c223dd58203f73744b88d4facc5164db, type: 3}
      propertyPath: m_LocalEulerAnglesHint.y
      value: 90
      objectReference: {fileID: 0}
    - target: {fileID: 5760890606260397698, guid: c223dd58203f73744b88d4facc5164db, type: 3}
      propertyPath: m_Materials.Array.data[0]
      value: 
      objectReference: {fileID: 2100000, guid: f1b73736d787e0b47adb5cf9bd98bce5, type: 2}
    - target: {fileID: 5760890606260397699, guid: c223dd58203f73744b88d4facc5164db, type: 3}
      propertyPath: m_Mesh
      value: 
      objectReference: {fileID: 532591105809680800, guid: 884061e1bd7deb847a9e7874178de2ee, type: 3}
    - target: {fileID: 8433769957707775209, guid: c223dd58203f73744b88d4facc5164db, type: 3}
      propertyPath: m_LocalPosition.x
      value: 0.2325
      objectReference: {fileID: 0}
    - target: {fileID: 8433769957707775209, guid: c223dd58203f73744b88d4facc5164db, type: 3}
      propertyPath: m_LocalPosition.y
      value: 1.395
      objectReference: {fileID: 0}
    - target: {fileID: 8433769957707775209, guid: c223dd58203f73744b88d4facc5164db, type: 3}
      propertyPath: m_LocalPosition.z
      value: 0
      objectReference: {fileID: 0}
    m_RemovedComponents: []
  m_SourcePrefab: {fileID: 100100000, guid: c223dd58203f73744b88d4facc5164db, type: 3}
