%YAML 1.1
%TAG !u! tag:unity3d.com,2011:
--- !u!162 &1
EditorUserSettings:
  m_ObjectHideFlags: 0
  serializedVersion: 4
  m_ConfigSettings:
    RecentlyUsedScenePath-0:
      value: 22424703114646680e0b0227036c7315001214396304232628252262b3ae2136ebf32f
      flags: 0
    RecentlyUsedScenePath-1:
      value: 22424703114646680e0b0227036c7315001214396304232628252262b0ae2136ebf32f
      flags: 0
    RecentlyUsedScenePath-2:
      value: 22424703114646680e0b0227036c7315001214396304232628252262b1ae2136ebf32f
      flags: 0
    RecentlyUsedScenePath-3:
      value: 22424703114646680e0b0227036c7315001214396304232628252262b6ae2136ebf32f
      flags: 0
    RecentlyUsedScenePath-4:
      value: 22424703114646680e0b0227036c7315001214396304232628252262b7ae2136ebf32f
      flags: 0
    RecentlyUsedScenePath-5:
      value: 22424703114646680e0b0227036c7315001214396304232628252262b4ae2136ebf32f
      flags: 0
    RecentlyUsedScenePath-6:
      value: 22424703114646680e0b0227036c7315001214396304232628252263b1ae2136ebf32f
      flags: 0
    RecentlyUsedScenePath-7:
      value: 22424703114646680e0b0227036c7315001214396304232628252263baae2136ebf32f
      flags: 0
    RecentlyUsedScenePath-8:
      value: 22424703114646680e0b0227036c7315001214396304232628252263b3ae2136ebf32f
      flags: 0
    RecentlyUsedScenePath-9:
      value: 22424703114646680e0b0227036c6c001a160b221f2b233e2867083debf42d
      flags: 0
    UnityRemoteDevice:
      value: 2d5e5a03
      flags: 0
    vcSharedLogLevel:
      value: 0d5e400f0650
      flags: 0
  m_VCAutomaticAdd: 1
  m_VCDebugCom: 0
  m_VCDebugCmd: 0
  m_VCDebugOut: 0
  m_SemanticMergeMode: 2
  m_VCShowFailedCheckout: 1
  m_VCOverwriteFailedCheckoutAssets: 1
  m_VCProjectOverlayIcons: 1
  m_VCHierarchyOverlayIcons: 1
  m_VCOtherOverlayIcons: 1
  m_VCAllowAsyncUpdate: 1
